…
::: {.cell-output .cell-output-stdout}

```
Substantive deviations found:

# A tibble: 26 × 6
   Claim `Table/Figure` Parameter                      Paper Reproduced category
   <dbl> <chr>          <chr>                          <dbl>      <dbl> <chr>   
 1     1 Table 2        r(Engagement, Emot. stabili…    0.31       0.42 Substan…
 2     1 Table 2        r(Self-esteem, Optimism)        0.22       0.24 Substan…
 3     1 Table 3        F1 % variance                  31.8       23.3  Substan…
 4     1 Table 3        F2 % variance                  11.1       19.6  Substan…
 5     2 Figure 1       % flourishing: Austria         27.6       26    Substan…
 6     2 Figure 1       % flourishing: Slovakia         9.9        9.4  Substan…
 7     2 Figure 1       % flourishing: Russian Fede…    9.4        7.7  Substan…
 8     2 Figure 1       Overall % flourishing          15.8       14.6  Substan…
 9     3 Table 5        M1 χ²                        2445.      5626.   Substan…
10     3 Table 5        M1 df                          90        102    Substan…
# ℹ 16 more rows
```
…
